model/SlackEventWrapper.class
responsehandler/ResponseHandler.class
model/SlackEvent.class
responsehandler/ChallengeResponseHandler.class
responsehandler/factory/ResponseHandlerFactory.class
Application.class
controller/SlackController.class
